﻿{
  "$schema": "http://json.schemastore.org/launchsettings.json",
  "iisSettings": {
    "windowsAuthentication": false, 
    "anonymousAuthentication": true, 
    "iisExpress": {
      "applicationUrl": "http://localhost:54049",
      "sslPort": 44381
    }
  },
  "profiles": {
    "IIS Express": {
      "commandName": "IISExpress",
      "launchBrowser": true,
      "launchUrl": "mdp/products",
      "environmentVariables": {
        "ASPNETCORE_ENVIRONMENT": "Development"
      }
    },"MDP Local Dev": {
      "commandName": "Project",
      "launchBrowser": true,
      "launchUrl": "mdp/products",
      "applicationUrl": "https://localhost:5002;http://localhost:5003",
      "environmentVariables": {
        "ASPNETCORE_ENVIRONMENT": "Development",
        "PORT": "5002"
      }
    },
    "MasterDataProduction.Web": {
      "commandName": "Project",
      "launchBrowser": true,
      "launchUrl": "",
      "applicationUrl": "https://localhost:5002;http://localhost:5003",
      "environmentVariables": {
        "ASPNETCORE_ENVIRONMENT": "Production",
        "PORT": "5002"
      }
    },
    "Alex": {
      "commandName": "Project",
      "launchBrowser": true,
      "launchUrl": "mdp/products",
      "applicationUrl": "https://localhost:5002;http://localhost:5003",
      "environmentVariables": {
        "ASPNETCORE_ENVIRONMENT": "Alex",
        "PORT": "5001"
      }
    }
  }
}